…
    ## Rows: 822 Columns: 9
    ## ── Column specification ────────────────────────────────────────────────────────
    ## Delimiter: ","
    ## dbl  (8): prez_gop, gov_gop, sen_gop, rep_gop, prez_dem, gov_dem, sen_dem, r...
    ## date (1): mon
    ## 
    ## ℹ Use `spec()` to retrieve the full column specification for this data.
    ## ℹ Specify the column types or set `show_col_types = FALSE` to quiet this message.

``` r
pols_df
```

    ## # A tibble: 822 × 9
    ##     year month     gov_gop sen_gop rep_gop gov_dem sen_dem rep_dem president
    ##    <int> <chr>       <dbl>   <dbl>   <dbl>   <dbl>   <dbl>   <dbl> <chr>    
    ##  1  1947 January        23      51     253      23      45     198 dem      
    ##  2  1947 February       23      51     253      23      45     198 dem      
    ##  3  1947 March          23      51     253      23      45     198 dem      
    ##  4  1947 April          23      51     253      23      45     198 dem      
    ##  5  1947 May            23      51     253      23      45     198 dem      
    ##  6  1947 June           23      51     253      23      45     198 dem      
    ##  7  1947 July           23      51     253      23      45     198 dem      
    ##  8  1947 August         23      51     253      23      45     198 dem      
    ##  9  1947 September      23      51     253      23      45     198 dem      
    ## 10  1947 October        23      51     253      23      45     198 dem      
    ## # ℹ 812 more rows
…
    ## Rows: 787 Columns: 2
    ## ── Column specification ────────────────────────────────────────────────────────
    ## Delimiter: ","
    ## chr (1): date
    ## dbl (1): close
    ## 
    ## ℹ Use `spec()` to retrieve the full column specification for this data.
    ## ℹ Specify the column types or set `show_col_types = FALSE` to quiet this message.

``` r
snp_df
```

    ## # A tibble: 787 × 3
    ##     year month    close
    ##    <dbl> <chr>    <dbl>
    ##  1  1950 April     18.0
    ##  2  1950 August    18.4
    ##  3  1950 December  20.4
    ##  4  1950 February  17.2
    ##  5  1950 January   17.0
    ##  6  1950 July      17.8
    ##  7  1950 June      17.7
    ##  8  1950 March     17.3
    ##  9  1950 May       18.8
    ## 10  1950 November  19.5
    ## # ℹ 777 more rows
…
    ## Rows: 68 Columns: 13
    ## ── Column specification ────────────────────────────────────────────────────────
    ## Delimiter: ","
    ## dbl (13): Year, Jan, Feb, Mar, Apr, May, Jun, Jul, Aug, Sep, Oct, Nov, Dec
    ## 
    ## ℹ Use `spec()` to retrieve the full column specification for this data.
    ## ℹ Specify the column types or set `show_col_types = FALSE` to quiet this message.

``` r
unemployment_df
```

    ## # A tibble: 816 × 3
    ##     year month     unemployment
    ##    <dbl> <chr>            <dbl>
    ##  1  1948 January            3.4
    ##  2  1948 February           3.8
    ##  3  1948 March              4  
    ##  4  1948 April              3.9
    ##  5  1948 May                3.5
    ##  6  1948 June               3.6
    ##  7  1948 July               3.6
    ##  8  1948 August             3.9
    ##  9  1948 September          3.8
    ## 10  1948 October            3.7
    ## # ℹ 806 more rows

### Merging the datasets

``` r
final_df <- pols_df %>%
  left_join(snp_df, by = c("year", "month")) %>%
  left_join(unemployment_df, by = c("year", "month"))

final_df
```

    ## # A tibble: 822 × 11
    ##     year month   gov_gop sen_gop rep_gop gov_dem sen_dem rep_dem president close
    ##    <dbl> <chr>     <dbl>   <dbl>   <dbl>   <dbl>   <dbl>   <dbl> <chr>     <dbl>
    ##  1  1947 January      23      51     253      23      45     198 dem          NA
    ##  2  1947 Februa…      23      51     253      23      45     198 dem          NA
    ##  3  1947 March        23      51     253      23      45     198 dem          NA
    ##  4  1947 April        23      51     253      23      45     198 dem          NA
    ##  5  1947 May          23      51     253      23      45     198 dem          NA
    ##  6  1947 June         23      51     253      23      45     198 dem          NA
    ##  7  1947 July         23      51     253      23      45     198 dem          NA
    ##  8  1947 August       23      51     253      23      45     198 dem          NA
    ##  9  1947 Septem…      23      51     253      23      45     198 dem          NA
    ## 10  1947 October      23      51     253      23      45     198 dem          NA
    ## # ℹ 812 more rows
    ## # ℹ 1 more variable: unemployment <dbl>
…
    ## New names:
    ## • `` -> `...15`
    ## • `` -> `...16`

``` r
mr_trash_wheel
```

    ## # A tibble: 707 × 17
    ##    dumpster month  year date                weight_tons volume_cubic_yards
    ##       <dbl> <chr> <dbl> <dttm>                    <dbl>              <dbl>
    ##  1        1 May    2014 2014-05-16 00:00:00        4.31                 18
    ##  2        2 May    2014 2014-05-16 00:00:00        2.74                 13
    ##  3        3 May    2014 2014-05-16 00:00:00        3.45                 15
    ##  4        4 May    2014 2014-05-17 00:00:00        3.1                  15
    ##  5        5 May    2014 2014-05-17 00:00:00        4.06                 18
    ##  6        6 May    2014 2014-05-20 00:00:00        2.71                 13
    ##  7        7 May    2014 2014-05-21 00:00:00        1.91                  8
    ##  8        8 May    2014 2014-05-28 00:00:00        3.7                  16
    ##  9        9 June   2014 2014-06-05 00:00:00        2.52                 14
    ## 10       10 June   2014 2014-06-11 00:00:00        3.76                 18
    ## # ℹ 697 more rows
    ## # ℹ 11 more variables: plastic_bottles <dbl>, polystyrene <dbl>,
    ## #   cigarette_butts <dbl>, glass_bottles <dbl>, plastic_bags <dbl>,
    ## #   wrappers <dbl>, sports_balls <int>, homes_powered <dbl>, x15 <lgl>,
    ## #   x16 <lgl>, trash_wheel <chr>
…
``` r
professor_trash_wheel <- read_excel("data/202509 Trash Wheel Collection Data.xlsx",
                                     sheet = "Professor Trash Wheel") %>%
  janitor::clean_names() %>%
  filter(!is.na(dumpster)) %>%
  mutate(
    trash_wheel = "Professor Trash Wheel",
    year = as.numeric(year)
  )

professor_trash_wheel
```

    ## # A tibble: 132 × 14
    ##    dumpster month     year date                weight_tons volume_cubic_yards
    ##       <dbl> <chr>    <dbl> <dttm>                    <dbl>              <dbl>
    ##  1        1 January   2017 2017-01-02 00:00:00        1.79                 15
    ##  2        2 January   2017 2017-01-30 00:00:00        1.58                 15
    ##  3        3 February  2017 2017-02-26 00:00:00        2.32                 18
    ##  4        4 February  2017 2017-02-26 00:00:00        3.72                 15
    ##  5        5 February  2017 2017-02-28 00:00:00        1.45                 15
    ##  6        6 March     2017 2017-03-30 00:00:00        1.71                 15
    ##  7        7 April     2017 2017-04-01 00:00:00        1.82                 15
    ##  8        8 April     2017 2017-04-20 00:00:00        2.37                 15
    ##  9        9 May       2017 2017-05-10 00:00:00        2.64                 15
    ## 10       10 May       2017 2017-05-26 00:00:00        2.78                 15
    ## # ℹ 122 more rows
    ## # ℹ 8 more variables: plastic_bottles <dbl>, polystyrene <dbl>,
    ## #   cigarette_butts <dbl>, glass_bottles <dbl>, plastic_bags <dbl>,
    ## #   wrappers <dbl>, homes_powered <dbl>, trash_wheel <chr>
…
``` r
gwynnda_trash_wheel <- read_excel("data/202509 Trash Wheel Collection Data.xlsx",
                                   sheet = "Gwynns Falls Trash Wheel") %>%
  janitor::clean_names() %>%
  filter(!is.na(dumpster)) %>%
  mutate(
    trash_wheel = "Gwynnda",
    year = as.numeric(year)
  )

gwynnda_trash_wheel
```

    ## # A tibble: 349 × 13
    ##    dumpster month   year date                weight_tons volume_cubic_yards
    ##       <dbl> <chr>  <dbl> <dttm>                    <dbl>              <dbl>
    ##  1        1 July    2021 2021-07-03 00:00:00        0.93                 15
    ##  2        2 July    2021 2021-07-07 00:00:00        2.26                 15
    ##  3        3 July    2021 2021-07-07 00:00:00        1.62                 15
    ##  4        4 July    2021 2021-07-16 00:00:00        1.76                 15
    ##  5        5 July    2021 2021-07-30 00:00:00        1.53                 15
    ##  6        6 August  2021 2021-08-11 00:00:00        2.06                 15
    ##  7        7 August  2021 2021-08-14 00:00:00        1.9                  15
    ##  8        8 August  2021 2021-08-16 00:00:00        2.16                 15
    ##  9        9 August  2021 2021-08-16 00:00:00        2.6                  15
    ## 10       10 August  2021 2021-08-17 00:00:00        3.21                 15
    ## # ℹ 339 more rows
    ## # ℹ 7 more variables: plastic_bottles <dbl>, polystyrene <dbl>,
    ## #   cigarette_butts <dbl>, plastic_bags <dbl>, wrappers <dbl>,
    ## #   homes_powered <dbl>, trash_wheel <chr>

### Combining all Trash Wheel datasets

``` r
trash_wheel_combined <- bind_rows(mr_trash_wheel, professor_trash_wheel, gwynnda_trash_wheel)

trash_wheel_combined
```

    ## # A tibble: 1,188 × 17
    ##    dumpster month  year date                weight_tons volume_cubic_yards
    ##       <dbl> <chr> <dbl> <dttm>                    <dbl>              <dbl>
    ##  1        1 May    2014 2014-05-16 00:00:00        4.31                 18
    ##  2        2 May    2014 2014-05-16 00:00:00        2.74                 13
    ##  3        3 May    2014 2014-05-16 00:00:00        3.45                 15
    ##  4        4 May    2014 2014-05-17 00:00:00        3.1                  15
    ##  5        5 May    2014 2014-05-17 00:00:00        4.06                 18
    ##  6        6 May    2014 2014-05-20 00:00:00        2.71                 13
    ##  7        7 May    2014 2014-05-21 00:00:00        1.91                  8
    ##  8        8 May    2014 2014-05-28 00:00:00        3.7                  16
    ##  9        9 June   2014 2014-06-05 00:00:00        2.52                 14
    ## 10       10 June   2014 2014-06-11 00:00:00        3.76                 18
    ## # ℹ 1,178 more rows
    ## # ℹ 11 more variables: plastic_bottles <dbl>, polystyrene <dbl>,
    ## #   cigarette_butts <dbl>, glass_bottles <dbl>, plastic_bags <dbl>,
    ## #   wrappers <dbl>, sports_balls <int>, homes_powered <dbl>, x15 <lgl>,
    ## #   x16 <lgl>, trash_wheel <chr>
…
    ## Rows: 322 Columns: 7
    ## ── Column specification ────────────────────────────────────────────────────────
    ## Delimiter: ","
    ## chr (4): County, County Code, File Date, Neighborhood
    ## dbl (3): State FIPS, County FIPS, ZipCode
    ## 
    ## ℹ Use `spec()` to retrieve the full column specification for this data.
    ## ℹ Specify the column types or set `show_col_types = FALSE` to quiet this message.

``` r
nyc_zipcodes
```

    ## # A tibble: 322 × 3
    ##      zip borough neighborhood              
    ##    <dbl> <chr>   <chr>                     
    ##  1 10451 Bronx   High Bridge and Morrisania
    ##  2 10452 Bronx   High Bridge and Morrisania
    ##  3 10453 Bronx   Central Bronx             
    ##  4 10454 Bronx   Hunts Point and Mott Haven
    ##  5 10455 Bronx   Hunts Point and Mott Haven
    ##  6 10456 Bronx   High Bridge and Morrisania
    ##  7 10457 Bronx   Central Bronx             
    ##  8 10458 Bronx   Bronx Park and Fordham    
    ##  9 10459 Bronx   Hunts Point and Mott Haven
    ## 10 10460 Bronx   Central Bronx             
    ## # ℹ 312 more rows
…
    ## Rows: 149 Columns: 125
    ## ── Column specification ────────────────────────────────────────────────────────
    ## Delimiter: ","
    ## chr   (6): RegionType, StateName, State, City, Metro, CountyName
    ## dbl (119): RegionID, SizeRank, RegionName, 2015-01-31, 2015-02-28, 2015-03-3...
    ## 
    ## ℹ Use `spec()` to retrieve the full column specification for this data.
    ## ℹ Specify the column types or set `show_col_types = FALSE` to quiet this message.

``` r
rental_prices
```

    ## # A tibble: 17,284 × 5
    ##      zip date       rental_price  year month    
    ##    <dbl> <date>            <dbl> <dbl> <ord>    
    ##  1 11368 2015-01-31           NA  2015 January  
    ##  2 11368 2015-02-28           NA  2015 February 
    ##  3 11368 2015-03-31           NA  2015 March    
    ##  4 11368 2015-04-30           NA  2015 April    
    ##  5 11368 2015-05-31           NA  2015 May      
    ##  6 11368 2015-06-30           NA  2015 June     
    ##  7 11368 2015-07-31           NA  2015 July     
    ##  8 11368 2015-08-31           NA  2015 August   
    ##  9 11368 2015-09-30           NA  2015 September
    ## 10 11368 2015-10-31           NA  2015 October  
    ## # ℹ 17,274 more rows
…
    ## Warning in left_join(., nyc_zipcodes, by = "zip"): Detected an unexpected many-to-many relationship between `x` and `y`.
    ## ℹ Row 4757 of `x` matches multiple rows in `y`.
    ## ℹ Row 256 of `y` matches multiple rows in `x`.
    ## ℹ If a many-to-many relationship is expected, set `relationship =
    ##   "many-to-many"` to silence this warning.

``` r
rental_data_combined
```

    ## # A tibble: 17,516 × 7
    ##      zip borough  neighborhood        date        year month     rental_price
    ##    <dbl> <chr>    <chr>               <date>     <dbl> <ord>            <dbl>
    ##  1 10001 New York Chelsea and Clinton 2015-01-31  2015 January          3855.
    ##  2 10001 New York Chelsea and Clinton 2015-02-28  2015 February         3892.
    ##  3 10001 New York Chelsea and Clinton 2015-03-31  2015 March            3898.
    ##  4 10001 New York Chelsea and Clinton 2015-04-30  2015 April            3970.
    ##  5 10001 New York Chelsea and Clinton 2015-05-31  2015 May              4033.
    ##  6 10001 New York Chelsea and Clinton 2015-06-30  2015 June             4071.
    ##  7 10001 New York Chelsea and Clinton 2015-07-31  2015 July             4067.
    ##  8 10001 New York Chelsea and Clinton 2015-08-31  2015 August           4070.
    ##  9 10001 New York Chelsea and Clinton 2015-09-30  2015 September        4040.
    ## 10 10001 New York Chelsea and Clinton 2015-10-31  2015 October          4023.
    ## # ℹ 17,506 more rows
…
